5 1992 Election – Preceptor's Primer for Bayesian Data Science: Using the Cardinal Virtues for Inference
…
Wisdom begins with a question and then moves on to the creation of a Preceptor Table and an examination of our data.

5.2.1 EDA

As (almost) always, we start by loading the tidyverse package and the primer.data package.

library(tidyverse)
library(primer.data)

Our data comes from American National Election Studies. The primer.data package includes a version of the main data set with a selection of variables. The full ANES data is much richer than this relatively simple tibble.

nes

# A tibble: 52,359 × 19
    year state sex    income    age education    race  ideology ideology_numeric
   <int> <chr> <chr>  <fct>   <int> <fct>        <chr> <fct>               <dbl>
 1  1952 NY    Female 68 - 95    25 Highschool   White Weak Re…                6
 2  1952 NY    Female 68 - 95    33 Elementary   White Indepen…                5
 3  1952 NY    Female 34 - 67    26 Highschool   White Indepen…                4
 4  1952 NY    Male   34 - 67    63 Some Highsc… White Strong …                7
 5  1952 OH    Female 0 - 16     66 Highschool + White Strong …                7
 6  1952 OH    Female 68 - 95    48 Some Highsc… White Indepen…                3
 7  1952 ID    Female 0 - 16     70 Elementary   White Indepen…                4
 8  1952 MI    Male   17 - 33    25 Highschool + Black Weak De…                2
 9  1952 GA    Female 0 - 16     30 Some Highsc… White <NA>                   NA
10  1952 OH    Female 68 - 95    35 Elementary   White Weak Re…                6
# ℹ 52,349 more rows
# ℹ 10 more variables: voted <chr>, region <fct>, pres_appr <chr>,
#   influence <chr>, equality <chr>, religion <chr>, better_alone <chr>,
#   therm_black <int>, therm_white <int>, pres_vote <chr>
…
nes_92 <- nes |> 
  filter(year == 1992) |> 
  select(sex, pres_vote, race, education) |> 
  drop_na() |> 
  mutate(pres_vote = case_when(
    pres_vote == "Democrat" ~ "Clinton",
    pres_vote == "Republican" ~ "Bush",
    pres_vote == "Third Party" ~ "Perot",
  )) |> 
    mutate(pres_vote = as.factor(pres_vote))

nes_92

# A tibble: 1,612 × 4
   sex    pres_vote race  education      
   <chr>  <fct>     <chr> <fct>          
 1 Female Bush      White Highschool     
 2 Female Bush      White Some College   
 3 Female Clinton   Black Some Highschool
 4 Male   Bush      White College        
 5 Female Clinton   White Highschool     
 6 Female Clinton   White Some College   
 7 Female Perot     White Some College   
 8 Male   Bush      White Some College   
 9 Female Bush      White Adv. Degree    
10 Male   Perot     White Highschool     
# ℹ 1,602 more rows
…
